Relatório De Análise
…
A matriz CAPM (Capital Asset Pricing Model) representa uma evolução significativa na forma de compreender e quantificar o risco e retorno dos ativos financeiros. Esta integração permite uma abordagem mais sofisticada para a construção de carteiras eficientes. O Modelo de Markowitz, com sua matriz de covariâncias, fornece a base matemática para entender como diferentes ativos se relacionam em termos de risco. A grande inovação do CAPM foi introduzir o conceito de beta (β) - uma medida que quantifica o risco sistemático de um ativo em relação ao mercado como um todo.

Code

library(GetBCBData)
library(fBasics)
library(rbcb)
require(rbcb)
require(ggplot2)

SelicD <- get_series(11, start_date = "2025-01-01", end_date ="2025-06-29") 
SelicD; View(SelicD); print(tail(SelicD))

# A tibble: 121 × 2
   date         `11`
   <date>      <dbl>
 1 2025-01-02 0.0455
 2 2025-01-03 0.0455
 3 2025-01-06 0.0455
 4 2025-01-07 0.0455
 5 2025-01-08 0.0455
 6 2025-01-09 0.0455
 7 2025-01-10 0.0455
 8 2025-01-13 0.0455
 9 2025-01-14 0.0455
10 2025-01-15 0.0455
# ℹ 111 more rows
…
O conceito de Beta insere-se na teoria do mercado de capitais como uma alternativa pragmática para superar as complexidades operacionais do modelo de Markowitz. Enquanto o modelo de Markowitz requer o cálculo de matrizes de covariância entre todos os pares de ativos - uma abordagem computacionalmente intensiva e suscetível a erros de estimação -, o modelo de mercado simplifica esta análise ao relacionar o comportamento de cada ativo diretamente com um índice de referência através de uma regressão linear simples. No contexto brasileiro, o Ibovespa consolida-se como nosso principal benchmark, sintetizando o desempenho dos papéis mais representativos negociados na B3. Esta relação funcional permite quantificar a sensibilidade individual dos ativos aos movimentos do mercado por meio do coeficiente Beta.

5.3.5.1 Baixando os dados da Selic:

Code

library(GetBCBData)
library(fBasics)
#Baixando os dados da selic:
library(rbcb)
#install.packages("GetBCBData")

selic <- get_series(11, start_date = dataini,end_date =datafim);selic 

# A tibble: 60 × 2
   date         `11`
   <date>      <dbl>
 1 2025-04-01 0.0525
 2 2025-04-02 0.0525
 3 2025-04-03 0.0525
 4 2025-04-04 0.0525
 5 2025-04-07 0.0525
 6 2025-04-08 0.0525
 7 2025-04-09 0.0525
 8 2025-04-10 0.0525
 9 2025-04-11 0.0525
10 2025-04-14 0.0525
# ℹ 50 more rows
…
